<?xml version="1.0" encoding="UTF-8" standalone="no"?>
<svg
   xmlns:dc="http://purl.org/dc/elements/1.1/"
   xmlns:cc="http://creativecommons.org/ns#"
   xmlns:rdf="http://www.w3.org/1999/02/22-rdf-syntax-ns#"
   xmlns:svg="http://www.w3.org/2000/svg"
   xmlns="http://www.w3.org/2000/svg"
   xmlns:sodipodi="http://sodipodi.sourceforge.net/DTD/sodipodi-0.dtd"
   xmlns:inkscape="http://www.inkscape.org/namespaces/inkscape"
   inkscape:export-ydpi="300"
   inkscape:export-xdpi="300"
   inkscape:export-filename="C:\Users\CLEVO\Documents\dev\python\pyMuses\muses.png"
   width="240.97284mm"
   height="273.06589mm"
   viewBox="0 0 240.97284 273.06589"
   version="1.1"
   id="svg8"
   inkscape:version="1.0 (4035a4fb49, 2020-05-01)"
   sodipodi:docname="muses.svg">
  <defs
     id="defs2">
    <inkscape:path-effect
       effect="skeletal"
       id="path-effect2861"
       is_visible="true"
       lpeversion="1"
       pattern="m -6.8758849,245.25348 c 0,2.76 2.24,5 5,5 2.76000004,0 5,-2.24 5,-5 0,-2.76 -2.23999996,-5 -5,-5 -2.76,0 -5,2.24 -5,5 z"
       copytype="single_stretched"
       prop_scale="1"
       scale_y_rel="false"
       spacing="0"
       normal_offset="0"
       tang_offset="0"
       prop_units="false"
       vertical_pattern="false"
       hide_knot="false"
       fuse_tolerance="0" />
    <inkscape:path-effect
       effect="spiro"
       id="path-effect2859"
       is_visible="true"
       lpeversion="1" />
    <inkscape:path-effect
       fuse_tolerance="0"
       hide_knot="false"
       vertical_pattern="false"
       prop_units="false"
       tang_offset="0"
       normal_offset="0"
       spacing="0"
       scale_y_rel="false"
       prop_scale="1"
       copytype="single_stretched"
       pattern="M 0,5 C 0,2.24 2.24,0 5,0 7.76,0 10,2.24 10,5 10,7.76 7.76,10 5,10 2.24,10 0,7.76 0,5 Z"
       lpeversion="1"
       is_visible="true"
       id="path-effect2838"
       effect="skeletal" />
    <inkscape:path-effect
       lpeversion="1"
       is_visible="true"
       id="path-effect2836"
       effect="spiro" />
    <inkscape:path-effect
       fuse_tolerance="0"
       hide_knot="false"
       vertical_pattern="false"
       prop_units="false"
       tang_offset="0"
       normal_offset="0"
       spacing="0"
       scale_y_rel="false"
       prop_scale="1"
       copytype="single_stretched"
       pattern="m -2.8484421,9.4309099 c 0,-2.76 2.24000003,-5 5,-5 2.76,0 5,2.24 5,5 0,2.7600001 -2.24,5.0000001 -5,5.0000001 -2.75999997,0 -5,-2.24 -5,-5.0000001 z"
       lpeversion="1"
       is_visible="true"
       id="path-effect2830"
       effect="skeletal" />
    <inkscape:path-effect
       lpeversion="1"
       is_visible="true"
       id="path-effect2828"
       effect="spiro" />
    <rect
       id="rect2822"
       height="25.002991"
       width="154.13237"
       y="104.75937"
       x="43.043125" />
    <rect
       id="rect848"
       height="14.24221"
       width="35.130787"
       y="115.20366"
       x="160.77873" />
    <inkscape:path-effect
       effect="skeletal"
       id="path-effect853"
       is_visible="true"
       lpeversion="1"
       pattern="m 39.745749,35.393491 c 0,-1.610508 1.065966,-2.917586 2.379389,-2.917586 1.313423,0 2.37939,1.307078 2.37939,2.917586 0,1.610507 -1.065967,2.917585 -2.37939,2.917585 -1.313423,0 -2.379389,-1.307078 -2.379389,-2.917585 z"
       copytype="single_stretched"
       prop_scale="1"
       scale_y_rel="false"
       spacing="0"
       normal_offset="0"
       tang_offset="0"
       prop_units="false"
       vertical_pattern="false"
       hide_knot="false"
       fuse_tolerance="0" />
    <inkscape:path-effect
       effect="spiro"
       id="path-effect851"
       is_visible="true"
       lpeversion="1" />
    <inkscape:path-effect
       effect="skeletal"
       id="path-effect847"
       is_visible="true"
       lpeversion="1"
       pattern="m -26.936728,15.760781 c 0,-2.76 0.987125,-5 2.203404,-5 1.216279,0 2.203404,2.24 2.203404,5 0,2.76 -0.987125,5 -2.203404,5 -1.216279,0 -2.203404,-2.24 -2.203404,-5 z"
       copytype="single_stretched"
       prop_scale="1"
       scale_y_rel="false"
       spacing="0"
       normal_offset="0"
       tang_offset="0"
       prop_units="false"
       vertical_pattern="false"
       hide_knot="false"
       fuse_tolerance="0" />
    <inkscape:path-effect
       effect="spiro"
       id="path-effect845"
       is_visible="true"
       lpeversion="1" />
    <inkscape:path-effect
       effect="skeletal"
       id="path-effect841"
       is_visible="true"
       lpeversion="1"
       pattern="M 0,5 C 0,2.24 2.24,0 5,0 7.76,0 10,2.24 10,5 10,7.76 7.76,10 5,10 2.24,10 0,7.76 0,5 Z"
       copytype="single_stretched"
       prop_scale="1"
       scale_y_rel="false"
       spacing="0"
       normal_offset="0"
       tang_offset="0"
       prop_units="false"
       vertical_pattern="false"
       hide_knot="false"
       fuse_tolerance="0" />
    <inkscape:path-effect
       effect="spiro"
       id="path-effect839"
       is_visible="true"
       lpeversion="1" />
  </defs>
  <sodipodi:namedview
     id="base"
     pagecolor="#ffffff"
     bordercolor="#666666"
     borderopacity="1.0"
     inkscape:pageopacity="0.0"
     inkscape:pageshadow="2"
     inkscape:zoom="0.47584683"
     inkscape:cx="425.98759"
     inkscape:cy="717.40326"
     inkscape:document-units="mm"
     inkscape:current-layer="layer1"
     inkscape:document-rotation="0"
     showgrid="false"
     inkscape:window-width="1526"
     inkscape:window-height="875"
     inkscape:window-x="-7"
     inkscape:window-y="-7"
     inkscape:window-maximized="1" />
  <metadata
     id="metadata5">
    <rdf:RDF>
      <cc:Work
         rdf:about="">
        <dc:format>image/svg+xml</dc:format>
        <dc:type
           rdf:resource="http://purl.org/dc/dcmitype/StillImage" />
        <dc:title />
      </cc:Work>
    </rdf:RDF>
  </metadata>
  <g
     transform="translate(6.8758827,22.812466)"
     inkscape:label="Calque 1"
     inkscape:groupmode="layer"
     id="layer1">
    <text
       style="font-style:normal;font-weight:normal;font-size:10.5833px;line-height:1.25;font-family:sans-serif;letter-spacing:0px;word-spacing:0px;white-space:pre;shape-inside:url(#rect848);fill:#000000;fill-opacity:1;stroke:none;"
       id="text846"
       xml:space="preserve" />
    <text
       style="font-style:normal;font-weight:normal;font-size:10.5833px;line-height:1.25;font-family:sans-serif;letter-spacing:0px;word-spacing:0px;white-space:pre;shape-inside:url(#rect2822);fill:#000000;fill-opacity:1;stroke:none;"
       id="text2820"
       xml:space="preserve" />
    <g
       id="g2869">
      <ellipse
         style="opacity:0.502935;fill:#ffffff;fill-opacity:1;stroke:#000000;stroke-opacity:1"
         id="path852"
         cx="99.853729"
         cy="114.88715"
         rx="72.644608"
         ry="70.587395" />
      <path
         style="mix-blend-mode:hard-light;fill:#c8b7b7;stroke:none;stroke-width:0.264583px;stroke-linecap:butt;stroke-linejoin:miter;stroke-opacity:1"
         d="m 97.796508,185.46522 c -0.346717,-0.19469 1.035277,-2.98201 2.473462,-8.47459 1.5214,-5.81036 2.63814,-13.50384 1.96634,-24.67477 -1e-5,0 0,-10e-6 0,-10e-6 -0.59733,-9.45695 -2.845574,-20.65546 -4.161245,-33.96995 -1.061574,-10.30521 -1.28582,-23.129652 3.230955,-35.383816 2.07644,-5.566732 5.27685,-11.083088 9.8209,-15.756874 4.29882,-4.42154 9.89591,-7.996479 16.37523,-9.730708 7.64181,-1.929878 15.61208,-1.247419 23.09833,0.908707 7.23165,2.033174 13.53575,4.914828 20.26227,7.562709 6.2666,2.411167 12.71335,4.606281 19.03219,4.8613 6.03361,0.203261 12.4104,-1.086255 16.60776,-4.808245 1.88702,-1.574566 3.93257,-4.169579 7.19831,-6.616205 1.62695,-1.222047 3.64441,-2.235287 6.01903,-2.798851 2.40207,-0.579395 5.09171,-0.371268 7.70958,0.798785 2.45464,1.230517 4.30361,3.150066 5.37126,5.443342 0,0 2e-5,3.9e-5 2e-5,3.9e-5 1.04304,2.250656 1.43825,4.609064 1.25129,6.855157 -0.46965,4.400184 -2.29658,8.028504 -4.47737,10.771491 -6.28421,8.380217 -15.48484,14.191167 -25.53635,16.989124 -9.73992,2.721065 -19.93025,2.919845 -29.80023,1.528042 -5.81659,-0.809271 -11.49321,-2.091712 -17.08825,-3.618212 -3.6829,-1.00481 -7.30359,-2.107999 -10.85161,-3.230172 -9.17584,-2.880863 -17.74969,-5.808734 -26.51722,-7.843955 -24.009918,-5.52997 -48.424845,-4.11076 -68.484055,5.282341 -10.815469,5.028237 -20.208959,12.159691 -27.324551,20.709441 -7.654051,9.19242 -12.660243,19.91915 -14.6192966,30.69315 -2.1688103,11.89566 -0.6776648,23.73372 3.5736846,33.60239 4.903094,11.4056 13.320076,20.09588 22.446911,25.15304 0,0 1.4e-5,0 1.4e-5,0 11.608214,6.44806 24.01527,7.13798 33.468535,5.02715 10.833353,-2.40575 18.191961,-8.13999 22.524808,-12.37573 4.332846,-4.23574 6.070789,-7.10544 6.429301,-6.90413 0.358513,0.20132 -0.672688,3.50313 -4.659018,8.49938 -3.986329,4.99624 -11.344454,11.84619 -23.169178,15.20555 -10.297363,2.91437 -24.128121,2.89285 -37.52781,-3.92023 2e-6,0 -1.5e-5,-1e-5 -1.5e-5,-1e-5 C 21.919266,199.88862 12.072971,190.45585 6.1439772,177.5924 1.023963,166.46524 -1.0222327,153.08219 1.1822988,139.55696 3.1892074,127.27498 8.5706647,115.08207 17.06363,104.59933 24.95247,94.866131 35.305554,86.748553 47.288466,81.044465 69.568124,70.506546 96.151218,68.590854 122.01992,74.602212 c 9.40279,2.169186 18.24415,5.147803 27.27296,7.983971 3.49477,1.089565 6.99918,2.154588 10.49753,3.114498 5.316,1.458651 10.56493,2.659938 15.81142,3.375404 8.8825,1.192699 17.70658,1.122838 25.74636,-1.171432 8.21046,-2.353423 15.69742,-6.888369 20.39681,-13.27554 1.45389,-2.143897 2.67099,-4.046807 2.64023,-5.654397 0.0342,-0.779564 -0.0384,-1.512207 -0.29657,-1.982825 0,0 0,-8e-6 0,-8e-6 -0.24049,-0.442512 -0.56934,-0.864753 -0.83144,-0.942097 -0.2271,-0.199471 -0.85744,-0.183438 -1.52218,-0.102786 -0.71225,0.100785 -1.55352,0.573666 -2.47523,1.18086 -1.88472,1.249952 -3.80058,3.706793 -6.72503,6.130335 -6.83672,5.446617 -15.38016,7.311945 -23.16562,6.723062 -7.97846,-0.564538 -15.3067,-3.071757 -21.81628,-5.78807 -7.00236,-2.861854 -12.93992,-5.740435 -19.30749,-7.616097 -6.54994,-1.878172 -13.00723,-2.713639 -18.75476,-1.252087 -4.88673,1.14473 -9.36604,3.890656 -12.92119,7.322905 -3.77759,3.64764 -6.57829,8.228976 -8.52316,12.9491 -4.3236,10.362295 -4.44882,22.326862 -3.90307,32.267232 0.76385,12.88421 2.48362,24.46249 2.52105,34.30599 0,0 0,0 0,1e-5 0.0783,11.55423 -1.90977,19.84191 -4.21554,25.54614 -2.22473,5.50377 -4.305495,7.94353 -4.652212,7.74884 z"
         id="path2826"
         inkscape:path-effect="#path-effect2828;#path-effect2830"
         inkscape:original-d="m 97.796508,185.46522 c -7.701607,35.34152 20.466852,-82.71005 30.699882,-124.065468 10.23302,-41.355424 54.01516,5.486151 81.02235,8.228832 27.00718,2.742679 10.55005,-5.27463 15.82468,-7.91234 5.27462,-2.637711 0.21126,10.550051 0.31649,15.824678 0.10523,5.274628 -69.83931,1.266238 -104.75937,1.898963 -34.920055,0.632721 -15.40242,70.683825 -23.104032,106.025335 z" />
      <text
         id="text857"
         y="128.00586"
         x="32.74139"
         style="font-style:normal;font-variant:normal;font-weight:normal;font-stretch:normal;font-size:48.7661px;line-height:11.15;font-family:'Antic Slab';-inkscape-font-specification:'Antic Slab';letter-spacing:0px;word-spacing:0px;fill:#000000;fill-opacity:1;stroke:none;stroke-width:1.21916"
         xml:space="preserve"><tspan
           style="font-style:normal;font-variant:normal;font-weight:normal;font-stretch:normal;font-family:'Antic Slab';-inkscape-font-specification:'Antic Slab';stroke-width:1.21916"
           y="128.00586"
           x="32.74139"
           id="tspan855"
           sodipodi:role="line">Muses</tspan></text>
      <path
         style="fill:#000000;stroke:none;stroke-width:0.264583px;stroke-linecap:butt;stroke-linejoin:miter;stroke-opacity:1"
         d="m 209.51874,48.740009 c -0.29358,-0.228295 0.87581,-2.057303 2.34395,-5.710104 1.46813,-3.652802 3.19935,-9.351343 2.71194,-16.570604 0,-3e-6 0,-6e-6 0,-8e-6 -0.42231,-6.316679 -2.65879,-13.782239 -7.78625,-20.7617993 -4.0363,-5.49787276 -9.808,-10.4959979 -17.09485,-14.171084 -6.30666,-3.1805617 -13.61351,-5.2441617 -21.60038,-6.0313497 -14.13662,-1.432377 -28.97949,1.471494 -45.13537,6.9741485 0,3.1e-6 -2e-5,5.7e-6 -2e-5,5.7e-6 C 108.93435,-2.7049745 94.494449,4.133989 78.519934,9.9137001 64.553161,14.972074 49.957959,18.752367 36.498927,25.06948 28.96098,28.66383 21.558955,33.137152 15.436441,38.703406 11.178799,42.574221 7.6088,46.910634 5.0060618,51.771737 c -0.9470837,1.838369 -1.736175,3.398704 -1.8585127,4.733237 -0.082284,0.658681 -0.098351,1.256671 0.012259,1.72685 0.1102164,0.460283 0.2590733,0.867249 0.4553817,1.08941 0.2118489,0.385103 0.8819929,0.725913 1.5843813,0.946984 0.7489919,0.231701 1.7603077,0.152629 2.8290034,-0.06562 0,0 1.33e-5,-2e-6 1.33e-5,-2e-6 2.2172321,-0.378462 4.6294101,-2.19931 7.5329461,-4.09038 18.441122,-12.771677 36.616854,-23.101825 56.445011,-28.662002 0,0 1.9e-5,10e-7 1.9e-5,10e-7 23.227483,-6.553706 45.816796,-4.691693 63.467126,4.035232 12.10344,6.106325 20.86415,13.993172 29.45451,19.052819 0,0 1e-5,5e-6 1e-5,5e-6 5.36673,3.144991 10.30728,5.301892 15.22096,6.414401 6.30217,1.419793 11.75956,1.043482 16.10686,-0.330298 0,0 1e-5,-3e-6 1e-5,-3e-6 9.25723,-2.866907 12.78524,-8.25365 13.2627,-7.882362 0.47746,0.371288 -1.89487,6.712515 -12.05678,11.107246 0,-2e-6 -1e-5,3e-6 -1e-5,3e-6 -4.76098,2.030793 -11.02721,3.071354 -18.23236,1.899281 -5.59546,-0.903977 -11.27459,-2.943256 -17.16652,-6.039662 0,-2e-6 -1e-5,-6e-6 -1e-5,-6e-6 C 152.60463,50.761446 143.344,43.150696 132.27987,38.14314 116.29373,30.734337 95.836864,29.83653 74.489137,36.090535 c 0,6e-6 -1.7e-5,5e-6 -1.7e-5,5e-6 -18.32919,5.403552 -35.308502,15.488813 -53.337402,28.064799 -2.752172,2.03974 -6.228962,4.371874 -10.799859,5.638156 0,0 -2.7e-5,7e-6 -2.7e-5,7e-6 -2.3012079,0.598077 -4.8703605,0.688331 -7.511223,0.08825 -2.66549193,-0.605286 -5.1712534,-2.124791 -7.088786,-4.504527 -1.2039445,-1.595983 -1.9802119,-3.358604 -2.3311786,-5.155795 -0.3487905,-1.778578 -0.3714131,-3.5138 -0.1251852,-5.13566 0.5315485,-3.205185 1.6894236,-5.898799 2.9644532,-8.111518 C -0.44826603,41.089157 3.7911788,35.899241 8.6940839,31.359668 15.749357,24.82723 23.998815,19.806902 32.31012,16.044839 46.37397,9.5844045 62.388903,5.3487844 75.295949,0.84707529 90.737851,-4.5445203 105.41819,-11.214277 120.13788,-15.980627 c 0,0 2e-5,-2e-6 2e-5,-2e-6 16.94132,-5.542684 33.21924,-8.138819 48.82723,-6.186584 8.84227,1.127933 16.94893,3.77057 23.93884,7.630519 8.09004,4.466852 14.34275,10.4828534 18.60817,16.9593098 5.42165,8.2357852 7.32231,16.8615422 7.23007,23.9340922 0,3e-6 0,6e-6 0,8e-6 -0.10979,8.121778 -2.74399,14.087271 -4.95225,17.654538 -2.20826,3.567268 -3.97764,4.95705 -4.27122,4.728755 z"
         id="path2834"
         inkscape:path-effect="#path-effect2836;#path-effect2838"
         inkscape:original-d="M 209.51874,48.740009 C 213.73839,45.574807 121.1118,19.833861 76.907934,5.3803904 32.704069,-9.0730799 26.058234,34.709057 0.63298712,49.372996 -24.79226,64.036931 2.6458333e-4,58.024085 -0.31649355,62.349231 -0.6332517,66.674377 12.132518,60.872525 18.356626,60.133777 24.580735,59.395026 95.370323,43.254384 133.87678,34.814293 c 38.50645,-8.440094 41.9884,15.613946 62.98221,23.420522 20.99381,7.806576 8.4401,-6.329606 12.65975,-9.494806 z" />
      <path
         inkscape:original-d="m 209.51139,178.701 c 4.21965,3.1652 -88.40694,28.90615 -132.610799,43.35962 -44.203871,14.45347 -50.849705,-29.32867 -76.27495186,-43.99261 -25.42524814,-14.66393 -0.632723,-8.65109 -0.949481,-12.97623 -0.316758,-4.32515 12.44901086,1.4767 18.67311986,2.21545 6.224109,0.73875 77.013693,16.8794 115.520152,25.31948 38.50645,8.4401 41.9884,-15.61394 62.98221,-23.42052 20.99381,-7.80657 8.4401,6.32961 12.65975,9.49481 z"
         inkscape:path-effect="#path-effect2859;#path-effect2861"
         id="path2834-0"
         d="m 209.51139,178.701 c -0.29358,0.22829 0.87581,2.0573 2.34394,5.7101 1.46814,3.65281 3.19935,9.35135 2.71195,16.57061 -1e-5,0 -1e-5,0 -1e-5,0 -0.42231,6.31668 -2.65878,13.78224 -7.78624,20.7618 -4.0363,5.49787 -9.80801,10.496 -17.09485,14.17108 -6.30666,3.18056 -13.61351,5.24416 -21.60039,6.03135 -14.13661,1.43238 -28.97948,-1.47149 -45.13536,-6.97414 0,-1e-5 -1e-5,-1e-5 -1e-5,-1e-5 -14.02342,-4.82581 -28.463316,-11.66477 -44.437829,-17.44448 -13.966775,-5.05837 -28.561977,-8.83867 -42.02101,-15.15578 -7.53795,-3.59435 -14.939977,-8.06768 -21.062492,-13.63393 -4.257641,-3.87082 -7.8276381,-8.20723 -10.4303749,-13.06833 -0.9470831,-1.83837 -1.736174,-3.3987 -1.8585116,-4.73324 -0.082284,-0.65868 -0.098351,-1.25667 0.012259,-1.72684 0.1102162,-0.46029 0.259073,-0.86725 0.4553812,-1.08941 0.2118487,-0.38511 0.8819926,-0.72592 1.5843808,-0.94699 0.7489918,-0.2317 1.7603075,-0.15263 2.8290032,0.0656 0,0 1.33e-5,0 1.33e-5,0 2.2172321,0.37846 4.6294101,2.19931 7.5329471,4.09038 18.441123,12.77168 36.616854,23.10182 56.44501,28.662 0,0 1.9e-5,0 1.9e-5,0 23.227482,6.5537 45.816794,4.69169 63.467124,-4.03523 12.10344,-6.10633 20.86415,-13.99317 29.45451,-19.05282 0,0 1e-5,-1e-5 1e-5,-1e-5 5.36673,-3.14499 10.30728,-5.30189 15.22096,-6.4144 6.30217,-1.41979 11.75956,-1.04348 16.10686,0.3303 0,0 1e-5,10e-6 1e-5,10e-6 9.25724,2.8669 12.78524,8.25365 13.2627,7.88236 0.47747,-0.37128 -1.89487,-6.71251 -12.05678,-11.10725 0,0 -1e-5,0 -1e-5,0 -4.76098,-2.0308 -11.02721,-3.07136 -18.23235,-1.89928 -5.59547,0.90397 -11.2746,2.94325 -17.16653,6.03966 0,0 -1e-5,0 -1e-5,0 -9.45844,4.94543 -18.71906,12.55618 -29.78319,17.56373 -15.98613,7.40881 -36.443004,8.30661 -57.790731,2.05261 0,-1e-5 -1.7e-5,-1e-5 -1.7e-5,-1e-5 -18.32919,-5.40355 -35.308501,-15.48881 -53.337403,-28.06479 -2.752172,-2.03974 -6.228962,-4.37188 -10.79986,-5.63816 0,0 -2.7e-5,0 -2.7e-5,0 -2.3012081,-0.59808 -4.8703608,-0.68833 -7.5112233,-0.0883 -2.66549188,0.60529 -5.1712531,2.1248 -7.088785,4.50453 -1.2039435,1.59599 -1.9802102,3.35861 -2.3311764,5.1558 -0.3487901,1.77858 -0.3714126,3.5138 -0.1251848,5.13566 0.5315484,3.20518 1.6894229,5.89879 2.9644517,8.11151 3.29181999,5.8851 7.5312628,11.07501 12.4341656,15.61458 7.0552752,6.53245 15.3047352,11.55278 23.6160432,15.31484 14.063851,6.46044 30.078786,10.69606 42.985833,15.19777 15.4419,5.39159 30.122234,12.06134 44.841924,16.82769 0,0 2e-5,0 2e-5,0 16.94132,5.54269 33.21924,8.13882 48.82723,6.18658 8.84227,-1.12793 16.94893,-3.77057 23.93884,-7.63051 8.09003,-4.46686 14.34275,-10.48286 18.60816,-16.95931 5.42165,-8.23579 7.32231,-16.86154 7.23008,-23.93409 0,0 -1e-5,-1e-5 -1e-5,-1e-5 -0.10978,-8.12177 -2.74399,-14.08727 -4.95224,-17.65454 -2.20826,-3.56726 -3.97764,-4.95704 -4.27122,-4.72875 z"
         style="fill:#000000;stroke:none;stroke-width:0.264583px;stroke-linecap:butt;stroke-linejoin:miter;stroke-opacity:1" />
    </g>
  </g>
</svg>
